digit_*
c0
-452.786632428
48.0389971956
-273.013124115
14.8814351694
-190.347708814
7.50728249238
-140.696699484
-6.06829490814
-115.857674619
-10.6488429443
-91.4218188909
-18.5608364316
done
c1
411.058661734
201.926408967
239.550988455
76.5764802611
166.603244694
44.3252447836
129.156253682
-0.633107437194
108.256639214
-12.777542902
90.8440055886
-34.6141656633
done
c2
-55.0810879787
121.631380832
-35.0064858145
23.1668236935
-25.254315717
4.2812547465
-18.3114242703
-36.9433514513
-15.4766836136
-52.1337738226
-11.986120816
-78.4455620773
done
c3
-810.880990434
-29.0170860952
-493.16157796
-9.65163807362
-341.836428962
-8.35717328486
-253.973619377
-0.722914420483
-206.488524963
1.31492646343
-171.701018501
5.93293751019
done
c4
-597.312877064
8.14401206215
-357.756486074
4.40341583037
-246.301776003
1.82327132515
-182.7260366
2.06163749957
-151.30521178
2.22730227604
-121.802141844
2.78771894054
done
c5
-99.1156907025
250.480242481
-58.1799963801
87.3011490211
-39.0046339435
45.3004725451
-29.7873945592
-9.97392904233
-24.7994820656
-26.4363165722
-20.6368276063
-55.8971639904
done
c6
-773.249414535
233.433909556
-445.215338649
87.5599164827
-299.275561439
52.8041145172
-229.377498536
10.678123539
-187.818387165
-2.76442130022
-159.425656034
-25.2012808863
done
c7
-316.121219812
32.3169229792
-192.613962001
3.29825005106
-137.987461714
-1.51701565636
-101.073062541
-12.8740122059
-83.7645101791
-17.9114873485
-64.1178935526
-25.8526825149
done
c8
296.45075004
110.373851569
175.983780712
29.5476735299
123.697171357
13.0931518081
94.3360166502
-18.7727864516
79.1676713428
-28.025383296
64.6687667173
-46.2983017272
done
end_character
digit_+
c0
-607.73876657
-27.7998174002
-354.18525334
-10.7851811469
-238.817637483
-5.71987807317
-181.020381504
1.17676656635
-150.464882802
3.54313464942
-125.144240142
6.68533093611
done
c1
-75.282519314
928.698962207
-42.2708155809
417.493023669
-26.4454049513
246.860408488
-20.2434731179
93.0117284692
-16.1615628376
38.8701384976
-14.133432344
-27.0951075812
done
c2
-1149.72360576
-39.4440913463
-633.443406246
-18.0757123458
-415.672776839
-12.4009301461
-328.614736381
-2.86198629883
-271.949315634
-0.157840970511
-233.318322418
4.07320655828
done
c3
12.150483592
458.169596806
4.88579077915
185.832190799
4.89860163223
107.499562338
5.29140464067
5.32732010607
5.07627086159
-25.7310329426
4.47531503891
-73.082301638
done
c4
-88.3809554048
1389.25880903
-51.7392263385
613.426931423
-35.6292003641
345.639651345
-28.3417350179
166.087134469
-24.3325917139
94.7833817233
-20.9175049592
18.9470080605
done
c5
-82.8778083284
690.892663358
-48.2278567916
302.455718034
-29.6116424485
179.423212115
-21.8534626505
52.7671880445
-17.7431560635
13.1572228517
-15.3918940044
-42.4431905243
done
c6
-301.102702734
1079.69161625
-160.436298678
505.942275094
-102.698669189
290.45865052
-82.2886522219
118.565725872
-66.6997333195
64.4490999211
-57.5617542834
-4.15692153986
done
c7
-404.111662706
-16.2098757914
-240.156420545
-2.89636306718
-168.535672609
0.737210952299
-126.406583706
4.65448449063
-105.164898094
6.27731326534
-85.1955124448
8.58916442122
done
c8
-874.191254025
-23.9751854549
-500.760282373
-10.1376702357
-333.567731968
-6.38527803468
-255.878901648
0.00779926230873
-211.565199809
1.99116145466
-178.085940952
4.81216785186
done
end_character
digit_0
c0
-693.008476503
-1237.95255584
-726.996762596
-1167.11899738
-17.5031000008
-203.993645683
214.689023362
140.274758659
154.122536584
106.541235917
91.7387718878
41.8751563788
done
c1
-4728.50130863
-6612.39777834
-50.5056625475
-524.75244559
245.251431688
-66.7853522292
364.986738228
154.577665016
277.886778001
142.234146406
132.811712148
36.2161999688
done
c2
-1273.46792177
-2194.49528533
-810.921317203
-1402.97024227
-33.2924999991
-281.333554748
233.480357311
106.16424849
163.521212306
67.900362802
105.693510837
26.5678062107
done
c3
4054.48745303
-7664.62363708
-9.16052001554
-974.096062396
-315.949402923
-158.828760493
-366.573301154
-33.1601579988
-394.614837349
74.9258691741
-278.351735798
47.7607205431
done
c4
-4134.27231122
-12464.5303978
381.03044729
-1145.12770795
522.482120153
-414.051646145
573.844673219
-4.77298542362
561.151538441
192.78368925
403.774240866
198.070861582
done
c5
-3553.47735296
-4532.99136644
-652.156689167
-1147.77273568
4.23105229438
-318.452726553
236.991638882
59.7321100681
184.843966568
86.4055305856
127.911925803
47.8886595257
done
c6
-3117.60230384
-6874.8300718
-827.263623992
-2112.79800681
-252.207278646
-968.578554278
143.608628123
-250.539805921
267.756412771
36.0225026401
224.357689264
25.8256151139
done
c7
-2058.54735277
-3181.53805414
-685.748484807
-1343.85063309
110.426556571
-183.503288199
273.09650652
145.451964917
168.669548653
65.5614591995
126.002795943
46.1250611392
done
c8
199.099507617
1073.05556074
-2240.09219338
-1567.39333696
-289.021099287
55.8388975376
-81.4316847809
162.654152065
47.5029348234
354.209755494
66.0529102217
396.504651865
done
end_character
digit_1
c0
-466.711671676
3721.64794109
-343.348950139
1608.05680296
-258.550908769
526.208984266
-199.195871877
350.402785947
-172.006676189
187.459736193
-145.584010363
149.144981843
done
c1
-727.030932758
-43.9443621902
-428.975122717
-15.3905708509
-291.980720129
-8.04367987941
-219.799574366
3.85798244441
-182.266231045
7.72879702484
-150.26980667
13.6936198146
done
c2
-586.405301349
2416.38008709
-376.417396355
1150.10105994
-272.558059587
404.447370755
-216.762689721
206.982896634
-187.314107862
97.234676829
-159.798596379
71.531811857
done
c3
-38.9369873039
1329.2864527
-19.7724445525
635.962233263
-14.9989056185
373.091677221
-14.5659096268
154.037987706
-14.1150974316
92.4431894551
-12.2198444698
5.70981828016
done
c4
-111.46707974
666.198200805
-68.6273418461
274.154607799
-45.9714130097
162.215754841
-33.8879153018
6.63952112452
-28.2470123899
-36.2858553135
-23.4358960879
-109.707934683
done
c5
-658.466160479
4675.77558827
-416.620346011
2235.92951956
-305.786513274
859.234998332
-248.143487842
531.641493135
-215.034878689
307.119728051
-183.417775172
264.835686914
done
c6
-377.260640109
2226.76413951
-835.740963356
2052.03345992
-752.266315434
1587.74056353
-468.045589021
882.600716503
-416.482343309
491.660702304
-376.446900691
326.348835272
done
c7
-634.384255876
3092.33888848
-406.883793605
1391.37769971
-304.148796549
460.676626938
-243.992874599
271.647394061
-209.24078392
132.596784973
-175.768315189
100.454762547
done
c8
-959.730828798
3710.05321705
-561.555242248
1717.78202645
-401.033916903
614.270677811
-327.182209352
363.916274117
-276.394810926
192.624411585
-235.982775144
156.048732164
done
end_character
digit_2
c0
-1527.48584421
1869.93978143
-1908.70889114
1540.58390905
-2250.55385664
1501.23060768
-1653.19042439
979.612103158
-1224.57058389
616.528913023
-971.727122628
381.671214034
done
c1
-402.588292836
4056.476166
-2822.29831588
3233.92318238
-2239.75478779
2137.52221055
-1539.41550217
1119.52071865
-997.840775402
602.725612618
-838.873519032
430.853110929
done
c2
-1219.95156053
1231.48378221
-973.666908865
897.043994131
-1168.35257538
875.271186049
-834.123727381
460.636307491
-667.033766433
317.878304818
-539.741039059
151.232626938
done
c3
-2194.33085869
2825.24353991
-2009.49362715
1994.22046034
-2001.09769555
1416.70123819
-1251.88060652
711.34471565
-939.962596146
423.209816261
-798.942417814
294.502392236
done
c4
-2220.61008665
1338.2798401
-1458.62607463
1034.10905206
-1655.35241252
1087.04647863
-1215.55376721
592.255314509
-928.886414857
415.440942147
-736.820724402
210.053953864
done
c5
-1585.91342691
2041.14387809
-1282.29482061
1437.26636495
-1594.42507356
1337.27700223
-1106.10878849
733.649932337
-837.123765848
482.693153436
-662.272813059
266.953705353
done
c6
-2961.19649705
656.500788742
-1820.8873826
809.081227306
-1838.33047495
955.843505318
-1336.04458314
469.122549708
-986.469331634
326.722929834
-798.551369026
143.075941656
done
c7
284.798245878
3600.66632534
-3417.73634153
3709.2443364
-2609.33069205
2513.90434437
-2178.35447903
1724.00085156
-1524.45253822
1037.96990714
-1076.87901718
679.938921168
done
c8
-2065.59529777
1261.44700622
-3549.397788
2541.55968155
-2805.10531995
1874.44716812
-2135.28079699
1474.91232734
-1823.71030493
1200.09761091
-1520.33290451
961.037003476
done
end_character
digit_3
c0
-431.970987445
3036.64543426
882.222347806
1234.89478719
95.2360083497
954.550178098
-319.144939349
648.358011844
-262.432584602
399.932745769
-140.523764227
245.243269281
done
c1
-15.2640092118
1576.66427521
114.18163941
761.167750929
19.7232427672
549.783872447
-153.191001927
406.406523216
-152.934945042
303.607312004
-53.9473820283
169.415424312
done
c2
122.980849686
2393.26761953
565.532191918
1079.78681943
217.433098385
821.808617465
-96.3585028042
715.681812576
-82.7421756109
493.315274151
26.8832250853
306.275885638
done
c3
-623.285692941
3656.68735116
558.440654542
1607.69934271
63.0840478894
1276.00482879
-179.288632848
1005.61114221
-136.051309048
634.188133668
-55.7559179495
420.763364314
done
c4
430.652697086
1758.8711291
375.782841472
982.457123698
196.134322149
716.418254376
-16.690281188
547.704438583
-72.5251831239
421.719448859
30.3686566142
255.559381161
done
c5
-361.081937381
2362.07438719
-15.5835440278
1155.71196376
-117.508706711
786.368817083
-230.704412196
566.830864124
-199.469757055
404.737422465
-64.7622937954
243.733301988
done
c6
848.077197925
856.419658834
280.2338448
572.386151921
145.189195194
444.260624337
33.6891770577
280.556907321
-79.2641232795
272.63225215
-12.9965141697
158.945979755
done
c7
171.020617651
4550.19537139
1063.06999542
1843.91633279
65.4310360506
1375.09239878
-279.50634544
889.346682773
-187.710060369
565.199710734
-66.2156656684
404.553781001
done
c8
-597.377519464
1664.24526311
-716.831484218
560.565105106
-446.704355447
197.743103659
-275.560408181
190.404092352
-242.91105828
102.273472611
-202.413355015
65.4671578311
done
end_character
digit_4
c0
-53.9412099183
725.440995562
-34.7257317016
318.33255557
-23.6412742238
217.007152956
-17.2685935916
85.5371201853
-13.8612506493
46.139568552
-11.7231797989
-17.830888607
done
c1
-986.20576985
629.515117754
25.8889349739
400.366035463
-130.154710964
498.631242854
-227.132320157
301.049072432
-162.53834975
253.082698311
-142.753910101
145.705248978
done
c2
-1105.98352027
1011.78485038
-382.964830547
779.656013481
-457.558048703
727.686593051
-409.194737876
467.943538591
-298.16137472
334.806369753
-272.321250634
245.663239172
done
c3
-1805.55131907
259.257144987
-567.14510831
223.998458318
-482.707539803
380.02378836
-450.492470357
193.118046622
-340.280265742
193.837130776
-294.431095553
92.2653600431
done
c4
-190.388519516
1427.72396504
-178.660989347
1033.73624326
-240.535406633
739.91615863
-231.271777183
495.388815382
-172.004606204
355.588305754
-155.494404597
248.937466886
done
c5
42.1191279231
1201.40079056
34.2177784568
557.247537577
11.8442599137
391.205451081
7.43404079515
199.647134084
7.79978373882
134.592302639
5.81277170944
43.8179933546
done
c6
-2184.25255667
775.631919446
-392.566404951
548.522410539
-329.667201334
551.476595901
-495.999355612
459.238888553
-385.544738488
310.907605201
-308.078963455
246.238403858
done
c7
-73.3631155574
361.507624659
-21.1765019721
141.861008161
-16.0231300881
107.991145127
-17.5702782897
23.4970488339
-14.0275477012
0.760554148037
-11.112472723
-44.9561983548
done
c8
-1357.09795974
507.257244239
-324.869841091
345.242358601
-344.442993054
441.040614004
-356.727848303
266.888211793
-273.452802993
224.464539903
-234.393663391
129.591674233
done
end_character
digit_5
c0
-1011.21570626
3726.54010266
839.208373539
1522.57742485
849.838739052
1063.48683225
627.059845465
678.584054323
498.543375049
420.962928323
506.091830424
285.328006325
done
c1
-2029.59817211
5495.36188264
1358.33483968
1934.34190371
804.38855011
1622.32968197
880.160188035
1067.51443819
637.44018444
719.913691639
546.746776242
500.326494686
done
c2
-875.115806589
-16.4019852561
-496.425492172
-8.3826088547
-330.154639423
-3.8192645689
-253.27987462
-1.27946778431
-211.415387452
-0.529518558095
-174.53373145
0.220555704975
done
c3
-384.731505042
4432.46762424
1479.60577163
1802.13822325
1201.55616544
1265.92256837
976.58440794
824.384122782
748.329486984
534.133572822
715.603111388
366.422554461
done
c4
805.956589342
1264.2311386
397.654987284
546.376203533
312.199906441
240.643067928
262.870241401
135.379336132
208.113190479
85.0814865192
175.953867175
39.759225562
done
c5
-1113.89131411
7055.67722596
1916.15901567
2541.44792436
1093.21261042
1953.10545414
1142.63399041
1233.66880209
910.253751136
853.252162581
739.635625302
638.142526226
done
c6
-583.969339545
5409.18248325
1913.918264
2009.97439398
1311.30313282
1475.62359669
1197.37116298
915.308067242
881.009066478
625.573749953
792.476160903
439.479437237
done
c7
-1074.00978764
2741.69326494
588.595288989
1114.20424801
717.335133289
756.95944713
456.022838137
503.75745318
380.294492297
311.494114334
392.918749589
205.431922879
done
c8
82.4729842741
3221.21009004
1414.36195862
1309.86258827
1279.87589229
851.042114711
892.295107585
565.02559989
739.549393681
361.282596503
709.666526135
244.540532196
done
end_character
digit_6
c0
-1293.61373598
483.395900715
-97.6299012035
627.772995309
399.267820986
879.897832005
461.379993005
892.277672742
287.904818793
600.700482067
220.17948642
420.408495012
done
c1
-1003.74739097
-1497.3623255
474.202488334
241.142108639
854.064129716
696.220650775
710.59982746
705.812262444
452.846610141
421.60852508
390.244658997
304.368399777
done
c2
-2364.97660964
-1408.89035054
2335.68243382
1985.49530571
1552.72926692
1193.11466222
1345.68603736
903.668464491
1236.75082315
515.531779004
974.081452492
271.58231578
done
c3
-635.894143711
-333.483450658
46.7224660247
142.316859591
501.182808555
572.458464617
481.71205286
635.453618021
323.185927815
425.926066751
267.160432872
314.238732577
done
c4
-3725.67246568
-2410.90619197
1574.04432575
1660.47297736
917.056206192
1099.71154618
695.459710756
916.04961372
708.497356242
619.122962618
591.032188364
356.792153836
done
c5
-1461.13757062
1641.60375357
-523.789234034
812.001885852
103.257517152
1065.87412215
240.156093105
1102.85312237
130.694772176
785.393492587
69.9835037066
532.828970833
done
c6
-3154.52483764
-1800.6506238
-124.691914984
-285.971047676
394.618895692
-42.9821336773
514.489459626
230.096745769
204.947256196
217.748409075
117.486179737
190.804828144
done
c7
-1520.88243124
-387.701486985
120.474394632
642.680230774
493.185914481
887.038230683
504.143055777
890.452824171
323.552891866
597.864607122
257.399126132
404.117202049
done
c8
-1744.64025638
501.301277583
-473.885129854
359.357617499
68.4766042031
627.015545328
208.200237507
725.057746715
103.504729586
508.949464925
70.7422315636
360.361450108
done
end_character
digit_7
c0
-454.073512181
-22.0955221753
-264.532165227
-7.8131568584
-181.968578273
-3.77870120419
-138.94811519
1.96456857367
-115.441908239
4.03372761418
-95.2847114709
6.90705602354
done
c1
-662.17917836
3140.15431455
-622.934930506
1236.90806722
-471.497908903
474.778182606
-319.407986873
362.699464366
-260.453596237
220.318177437
-213.527907074
162.208427485
done
c2
-469.709663211
4350.14848562
-629.326272561
1807.7001484
-578.491939938
829.233059293
-386.586638197
578.90959034
-317.296070912
409.197891515
-247.20105141
302.197328
done
c3
-26.4241295661
2860.67166911
-311.819751753
1180.8294735
-284.268377181
473.329813089
-174.747293531
338.343226589
-149.556834764
205.226011935
-116.785977404
151.00665702
done
c4
-289.108428067
2453.17311572
-387.217482579
998.407576504
-324.764673274
378.790101645
-215.390990624
264.678875005
-181.082902254
155.131255402
-145.540700537
108.860636389
done
c5
-502.280806938
1323.31815747
-434.770660049
484.266045439
-323.992357431
189.81168827
-227.049002553
151.893982513
-190.8853144
79.4292531875
-154.670785154
50.6351766526
done
c6
-635.415991583
5948.65757007
-567.337475993
2026.1730732
-425.965770043
1138.42823774
-329.430996043
730.192306383
-230.152512838
581.832979645
-213.771769462
445.428290023
done
c7
-357.49798778
3645.99005802
-511.759976467
1542.68811166
-452.717773194
662.651824531
-305.003771824
471.201397726
-259.500481211
311.200248061
-204.17811742
240.08890272
done
c8
762.879537475
4490.87977715
-135.675616585
1698.81619076
-151.647162388
774.551079213
22.9262638312
594.404139509
-3.30857013222
433.016950099
11.7086518189
306.590310898
done
end_character
digit_8
c0
-767.914775073
-3235.06574802
-77.0625955408
-800.184102815
-400.100517962
-113.072857308
-250.342342852
86.6118102753
-66.7189273049
-14.6918752333
41.3390700849
-45.4849528642
done
c1
-1123.95939009
-4821.08626383
-201.829858846
-751.509651958
-502.745143652
-131.947335872
-187.599104647
57.2932820677
67.1606768935
29.4307975726
148.930684406
-26.9937422462
done
c2
-443.518551925
450.253130464
-276.616409483
174.345475073
-204.891658859
53.3166553507
-156.74964526
19.1901464448
-129.21542638
-2.50261401645
-104.844925926
-16.7004973686
done
c3
-1164.59999075
-6909.76039531
-522.965260009
-956.27445272
-652.225793502
-119.711302615
-261.050393464
39.6457616504
21.9601368302
-31.0806537815
155.061891778
-62.2288377416
done
c4
-493.633655087
-2167.40659336
-360.41722218
-571.508697573
-228.296188282
-54.3593118543
-20.115694708
-6.37318761052
31.1886947883
-27.0548929362
53.7167001544
-4.19078914026
done
c5
-943.430828662
-3934.58302493
-142.297992852
-939.80331399
-463.54561054
-128.863218967
-224.300344504
104.473039947
-12.7722127661
10.5765811458
96.249353114
-35.5937662483
done
c6
-1308.37558773
-3303.5938967
-290.323422142
-445.142278234
-444.906288326
10.5429418211
-103.527699137
96.2090472894
88.549880846
-12.5336444903
123.89043156
-42.336485094
done
c7
-1264.71081214
-4589.16169083
280.98631162
-1591.74228002
-206.834988052
-609.36351486
-349.912657542
-134.571746982
-285.804291402
-0.356536176707
-116.505400819
-39.4242635692
done
c8
-1525.56214461
-1446.34186524
-670.310412607
-579.923485019
-166.382489847
-123.21088405
-155.033529011
-68.0752559907
-147.177540501
-38.8790863685
-145.85505497
-25.6723379549
done
end_character
digit_9
c0
-556.435195756
1452.25641071
-62.961012017
495.215713392
112.78208207
390.496650646
42.00023139
331.677071466
26.0697085369
156.047012027
4.43287480694
101.459677845
done
c1
-686.625732072
1512.70033207
-274.090833699
322.881579253
-41.7136657786
231.08009492
-24.0218366341
305.599459205
-8.04796394041
164.245830906
-29.3879111923
97.5448192575
done
c2
-745.456003327
1940.60357209
-237.017577949
538.251268518
5.19935777535
425.267856149
-7.33295646901
419.418635059
-6.36071054494
222.096228598
-30.6715621963
131.454670865
done
c3
-684.261354896
1236.58546926
-257.614227931
264.926085714
-39.7304751925
214.260950963
-34.4147324997
265.056841452
-21.4853707681
139.440617806
-39.3569410975
82.7921773919
done
c4
-676.212845325
1412.18410391
-182.236860691
439.748366636
38.0459701386
359.222629508
14.6052694541
329.562160558
12.1595603424
175.325953068
-8.56113287096
121.13855201
done
c5
-530.997301782
1426.40442253
-146.957116303
358.852840961
49.6983179801
279.881161328
27.5706099067
316.868274292
25.2145800334
173.693720686
-2.6079421731
107.923638864
done
c6
-823.230067251
2329.00015963
-441.072949888
473.349400694
-181.708519426
354.308597593
-53.2320752848
426.662978977
-24.6944092911
328.712087703
-22.8494585481
222.490020497
done
c7
-509.556604689
1724.62671369
-76.6456354213
589.1446283
91.9137277309
439.287010533
36.0286902912
379.773713589
16.6948711704
189.374938248
-7.55876174837
124.006338174
done
c8
-667.909425086
1771.27667945
-269.444809873
377.855163212
-17.7985261008
256.677918394
3.35482668638
355.589227062
18.2524701192
193.163364449
-12.2401403026
117.235635335
done
end_character
end
