digit_*
c0
-182.96092199
267.25007088
855.668264497
-738.04266644
-1020.65665067
596.299064403
-526.8948582
719.275283513
done
c1
41.085929006
461.869377458
296.481510625
-756.713737819
-190.154723836
212.073689697
-613.055334789
211.479427329
done
c2
410.642574417
416.594887474
-150.617631837
-750.740094971
-9.8328339889
347.926004841
-697.330046879
-27.8335851612
done
c3
385.171295696
750.58773241
474.126174919
-1198.54377225
203.958368942
446.744261855
-1285.32411128
303.697270997
done
c4
197.767727441
428.801031183
654.508485646
-1275.04588838
-799.857769674
741.987004838
-988.723484563
631.328522161
done
c5
-373.177729897
661.006577158
1358.80675858
-923.913121022
-790.795503777
205.076573716
-1154.27526797
1169.13461106
done
c6
531.13714834
667.09704885
-43.065209711
-1114.76669374
-44.9761378313
879.548005471
-1189.67284205
-43.1593514316
done
c7
205.566746596
261.338246071
351.116346276
-869.047168919
-343.853025885
348.934848675
-736.851338952
383.616788896
done
c8
-186.875542798
342.468908591
813.027659635
-1004.87420954
-333.080943193
21.0183089651
-741.232964566
631.120279608
done
end_character
digit_+
c0
552.184129881
-1749.44549686
-702.223124936
834.735936346
-82.0394034981
-267.706043562
-199.476243664
389.684245934
done
c1
572.217634604
-3007.26857858
-1247.30228489
785.051606663
155.242095091
-192.691374007
-697.869775706
224.11559159
done
c2
-48.319113339
-2381.09161334
-257.504200358
645.462866017
-473.146219553
212.366537441
-21.1562639675
-214.10086149
done
c3
436.14146659
-2208.60963236
-914.703596708
797.957950641
-43.4868464319
-364.036528763
-367.845491944
389.291282225
done
c4
127.297302389
-853.809974121
-342.666117592
347.047697753
-228.082541955
-19.7540519183
-16.6185118908
49.4293006994
done
c5
328.626243799
-2057.52364689
-553.15874133
829.533832334
-537.30931506
-44.9619706221
8.98392251398
82.0425875626
done
c6
784.394658467
-3231.96435535
-1103.22945917
1263.98867529
-195.08470469
-599.753953788
-313.309391115
640.04580204
done
c7
233.342632656
-1774.51988043
-686.191151591
526.482709485
-13.4999375125
-305.762751284
-337.449417642
277.0681314
done
c8
434.023724288
-2259.28469814
-561.318048004
834.679814158
-130.607225609
-442.107378659
-115.223296313
372.367713159
done
end_character
digit_0
c0
-4728.50130863
-6612.39777834
-50.5056625475
-524.75244559
245.251431688
-66.7853522292
364.986738228
154.577665016
done
c1
-2058.54735277
-3181.53805414
-685.748484807
-1343.85063309
110.426556571
-183.503288199
273.09650652
145.451964917
done
c2
4054.48745303
-7664.62363708
-9.16052001554
-974.096062396
-315.949402923
-158.828760493
-366.573301154
-33.1601579988
done
c3
-4134.27231122
-12464.5303978
381.03044729
-1145.12770795
522.482120153
-414.051646145
573.844673219
-4.77298542362
done
c4
-3511.99089547
-4698.37809392
-682.333011565
-1235.39673206
-26.4557196138
-383.520490409
227.251240331
33.5401203748
done
c5
-1354.22703915
-1572.48134487
-786.283119203
-1074.97857605
-19.2556644307
-135.911859104
196.292116059
150.35838647
done
c6
-88.733546761
352.824382454
-1490.34083371
-1449.96753366
-202.138679339
-90.5529216496
93.150612466
252.959634819
done
c7
-3044.86738052
-7466.89587832
-809.19996301
-2288.62665506
-273.022742437
-1065.90429465
131.00851767
-314.00379999
done
c8
-889.389192295
-2287.66565319
-784.87184761
-1560.9458829
-30.3218216428
-369.820103012
253.485541477
70.1192433966
done
end_character
digit_1
c0
-338.05375402
1932.18715976
-906.672926038
1893.49201583
-1068.04238874
1367.08655694
-362.925524468
702.568354321
done
c1
-976.081654332
2838.80894496
-816.613016923
1714.26238695
-1102.05317666
1245.3929194
-678.139194253
492.232788337
done
c2
-87.8154750258
719.938627366
-55.4219580083
307.112096814
-38.0314233149
190.295091869
-27.9614088079
25.138952656
done
c3
-606.461719258
3360.11441524
-387.538535476
1511.88344445
-284.506731738
511.800934594
-228.732391448
307.517062746
done
c4
-772.734717727
2876.17307143
-812.842355324
2198.16895166
-1235.96637239
1746.87500346
-603.317691226
883.63124702
done
c5
-437.179584434
4447.51346396
-529.621223845
2282.32688418
-1086.17161173
1821.77104563
-890.859794966
798.5603984
done
c6
-1004.45483839
4131.54070289
-574.331902513
1882.3341072
-410.544885597
609.573137177
-339.500093785
381.379860216
done
c7
-1260.59174595
4907.9758709
-1622.77482252
2279.27671924
-1877.00007195
637.006286185
-1113.64692504
260.223086057
done
c8
-440.862900502
1952.20305089
-272.047708953
902.52892937
-186.716045542
285.40132747
-150.076496613
129.408971037
done
end_character
digit_2
c0
-2194.33085869
2825.24353991
-2009.49362715
1994.22046034
-2001.09769555
1416.70123819
-1251.88060652
711.34471565
done
c1
-1984.77703632
1072.07363556
-1345.35221567
875.67257868
-1551.4625582
1021.97413118
-1134.94447064
557.992248728
done
c2
-107.994061959
3861.12909143
-3077.48604116
3437.63224839
-2398.14446105
2298.82883933
-1813.24649225
1378.58363276
done
c3
-1535.0387648
2045.93586141
-1254.33234794
1434.41625218
-1557.64851729
1337.59857195
-1080.54760381
736.910807517
done
c4
-2891.58447231
1128.81944958
-1913.5563024
1028.61849935
-1950.16729545
962.180286911
-1366.43218822
469.682796333
done
c5
-1184.0091031
1240.56317193
-950.465945148
896.090930033
-1148.71087209
869.946357255
-822.284382853
459.155777898
done
c6
-2243.00355291
1685.14054385
-1565.26487123
1263.75556302
-1865.78995601
1292.00994232
-1357.55227919
733.601921778
done
c7
-2065.59529777
1261.44700622
-3549.397788
2541.55968155
-2805.10531995
1874.44716812
-2135.28079699
1474.91232734
done
c8
-591.190230344
2190.15504257
-2159.14662006
1984.62343914
-2284.26980907
1636.27297301
-1862.45114568
1184.5742054
done
end_character
digit_3
c0
-541.868994492
2800.45025773
657.381437743
1102.22587719
98.0489663763
867.23988825
-287.416812174
667.171756465
done
c1
471.251296908
1282.6668797
271.292729469
682.592773517
172.041474326
518.78265127
-19.5255122727
364.326391796
done
c2
171.020617651
4550.19537139
1063.06999542
1843.91633279
65.4310360506
1375.09239878
-279.50634544
889.346682773
done
c3
389.592046846
1758.4795575
376.956900385
1037.08110241
186.377901505
752.814611249
-25.8520332347
582.954265575
done
c4
-361.081937381
2362.07438719
-15.5835440278
1155.71196376
-117.508706711
786.368817083
-230.704412196
566.830864124
done
c5
-431.686411682
3536.24935562
752.508837308
1543.13296326
125.365799905
1211.08266575
-182.154699968
903.885536961
done
c6
-171.143168083
4986.14210922
188.06449146
2091.6955684
39.2223581564
960.435119129
-800.022380021
1095.96120089
done
c7
245.49976516
2351.71467519
570.75653174
1068.9319629
211.31339324
803.714502147
-87.8417270817
689.880900822
done
c8
-102.581977376
1660.20997956
62.2146804664
803.805360837
-24.6619791178
569.251270353
-187.891765325
422.6254041
done
end_character
digit_4
c0
-3255.91344343
848.025713671
379.721198086
1539.6967253
-284.632361906
770.446673534
-232.854887494
353.456257146
done
c1
-3768.77287099
1937.51438341
669.549799236
2599.49539057
-519.738681795
528.543403293
491.065420539
833.409038981
done
c2
-4503.861892
11.4913464984
1206.58096393
3670.5953159
73.9376277337
1129.83710394
518.862055905
-218.840368694
done
c3
-3565.30960741
1529.52641741
1442.21554829
3322.45745609
119.190238196
1835.72355757
-31.4537384544
528.964370358
done
c4
-3333.9602173
993.944617268
510.782003423
3867.68531604
-215.380916301
-508.775499673
807.069661374
1521.51396842
done
c5
-5514.17631384
3680.92512687
190.789553585
5735.37402806
-495.888764037
-490.227695196
1495.54305313
2575.26759767
done
c6
-5312.26342353
8.21615779688
2866.37306775
4209.19485806
459.113883537
3319.80805114
-499.942085501
12.8786597584
done
c7
-5778.36306522
2084.43172777
1774.64803444
3850.32621584
-461.664237355
1216.3225788
576.900885488
431.123549017
done
c8
-4748.34118249
988.70110949
1239.45276914
2729.91634807
-528.34483004
1553.49979739
-275.396536744
505.199643297
done
end_character
digit_5
c0
14.5604495309
3111.54459489
1380.94966691
1253.91486902
1250.8733162
823.228281285
870.158204401
555.710780547
done
c1
-1113.89131411
7055.67722596
1916.15901567
2541.44792436
1093.21261042
1953.10545414
1142.63399041
1233.66880209
done
c2
-897.883230349
5094.41612082
1561.05817006
1938.84344381
1132.39431298
1446.87917892
1029.41889312
899.022860948
done
c3
-1050.86961666
3008.50053401
636.826840492
1243.96217127
744.402900079
855.050434028
495.801753687
540.324142453
done
c4
-2146.78023031
5518.48615853
1387.48272484
1940.97397827
805.565244161
1647.86136633
894.462922295
1084.46830231
done
c5
142.098398399
5635.23333249
1861.51888039
2384.27283272
1461.45733206
1372.60435977
1064.75606218
1029.02011527
done
c6
700.347940676
4348.40460023
1793.14447929
1806.2707416
-1138.40734739
1026.55348545
-751.430120957
292.727560736
done
c7
-1020.34496749
3852.05655109
878.398851112
1569.34095928
865.191329749
1103.9031577
648.23534067
710.87236261
done
c8
-272.978660537
4366.99432804
1579.80757313
1768.12267738
1273.34510612
1227.44954454
1019.59798038
810.520288693
done
end_character
digit_6
c0
-1577.91599578
448.639065386
-403.053743029
351.239871192
127.631762498
634.758225881
266.022368899
739.760668299
done
c1
-1003.74739097
-1497.3623255
474.202488334
241.142108639
854.064129716
696.220650775
710.59982746
705.812262444
done
c2
-2364.97660964
-1408.89035054
2335.68243382
1985.49530571
1552.72926692
1193.11466222
1345.68603736
903.668464491
done
c3
-1470.88246075
-408.347474904
112.901927828
573.771746535
487.469943532
820.201176029
510.351967265
835.839206335
done
c4
-546.947243865
-334.202438061
45.5806432581
116.741141757
496.495608856
560.027084187
462.12081142
620.37668038
done
c5
-1241.35656643
419.575841782
-47.1654886051
635.112413199
467.597265615
912.069553713
509.242695547
921.226228261
done
c6
-3725.67246568
-2410.90619197
1574.04432575
1660.47297736
917.056206192
1099.71154618
695.459710756
916.04961372
done
c7
-1557.07741301
1331.40701839
-364.592183851
890.340775911
166.060796431
1075.81465188
272.721222319
1051.46553013
done
c8
-3154.52483764
-1800.6506238
-124.691914984
-285.971047676
394.618895692
-42.9821336773
514.489459626
230.096745769
done
end_character
digit_7
c0
-74.1267732976
-855.583455942
-788.82723958
481.574334401
-1025.10378748
1209.25068329
-687.237309436
-120.073367727
done
c1
-468.411728122
3572.65477375
-587.859901662
1426.0445553
-483.083351491
572.558722056
-318.666694897
436.58986987
done
c2
-25.6438161657
-2484.6426196
-945.583303603
2566.04548073
-560.643115537
40.3906555976
-553.270137057
565.363457058
done
c3
-108.968520761
1624.92905306
-656.153039621
298.823824133
-964.883498066
802.54661392
-854.172993337
574.9650865
done
c4
296.781027789
4976.80570812
-279.562903055
1807.93515157
-243.086698273
895.843465389
-94.5261561268
639.6668618
done
c5
-200.253870944
-199.86474159
-836.154107444
-65.2905241452
-1120.57459356
1246.82921205
-863.065539388
471.805048385
done
c6
179.673472869
-1793.9467879
-1191.64985099
1317.24330638
-1070.643908
1169.10035666
-687.861393599
-355.268266824
done
c7
30.329050777
2582.36952321
-291.225412615
1051.12930799
-278.651950195
413.962354608
-171.036872434
301.828342392
done
c8
541.5491597
-25.914723104
-675.785273728
684.51674741
-915.807052446
1278.28454242
-601.748888932
118.959715469
done
end_character
digit_8
c0
-424.295985263
-2261.48334168
-319.062983835
-455.438815651
-256.935453829
50.2465337165
-40.9883265144
20.9126043735
done
c1
-1172.52174312
7527.5266289
-2822.38851993
-4250.20411994
-595.3606329
2253.42249846
-1053.54038588
-1534.81126328
done
c2
-911.025186747
-3876.93500682
-122.295948149
-919.328897574
-454.628737874
-122.808677249
-234.919764983
107.90314584
done
c3
-801.716671542
2293.96171191
-3901.87104762
990.426130356
-750.423008292
577.938799616
-343.611873426
-1713.96007636
done
c4
-1164.59999075
-6909.76039531
-522.965260009
-956.27445272
-652.225793502
-119.711302615
-261.050393464
39.6457616504
done
c5
-1303.85477996
-4860.51425328
149.111303714
-1376.51304479
-355.126376024
-437.57265565
-285.128562103
-35.2424611861
done
c6
-1036.34364701
-4696.77404307
-289.456320708
-587.59998892
-502.476095515
-78.4135516444
-174.50095984
54.575865051
done
c7
-1634.99309136
-3588.73693509
-310.480485035
-469.869819994
-524.492457408
-11.057926099
-157.847721209
104.178081453
done
c8
-885.946310318
-3153.94730214
-155.209212868
-668.288095552
-396.542818277
-67.1334486354
-180.687259317
83.3996602447
done
end_character
digit_9
c0
-671.750398354
1305.50606052
-208.29572097
346.224132672
13.4917243273
299.443237416
3.16523635447
306.823805548
done
c1
-744.844908816
1824.61781269
-377.01399678
386.430081648
-107.87229386
213.749069863
-40.7289115937
316.680391989
done
c2
-588.717302873
1510.14815166
-189.149802301
375.516696959
18.7168471654
280.805639646
10.8467534739
324.960307025
done
c3
-724.058493412
1519.73646029
-301.980792323
311.077556845
-62.6098637392
215.823092911
-39.6737876174
299.030829905
done
c4
-672.285141224
1803.42816162
-236.839673462
407.979539474
11.7374445356
305.321262784
14.5020563795
384.186367813
done
c5
-823.230067251
2329.00015963
-441.072949888
473.349400694
-181.708519426
354.308597593
-53.2320752848
426.662978977
done
c6
-509.556604689
1724.62671369
-76.6456354213
589.1446283
91.9137277309
439.287010533
36.0286902912
379.773713589
done
c7
-704.813085342
1193.52516909
-280.9473577
233.205964688
-59.4584401413
171.282245295
-49.9564609016
235.268627347
done
c8
-582.865159852
1440.80349431
-91.7868145743
489.177545453
94.8941598758
388.993836371
35.0734702696
331.017319976
done
end_character
end
