digit_8
c0
-545.763846075
-2555.31220189
-218.185019035
-598.639758664
-303.762725454
-4.92072969513
-134.358573029
54.0845204888
done
c1
-1303.85477996
-4860.51425328
149.111303714
-1376.51304479
-355.126376024
-437.57265565
-285.128562103
-35.2424611861
done
c2
-443.518551925
450.253130464
-276.616409483
174.345475073
-204.891658859
53.3166553507
-156.74964526
19.1901464448
done
c3
-845.19422794
-3760.23646963
-115.185635691
-912.309316359
-449.565271691
-126.573046704
-242.683073504
100.502977658
done
c4
-1219.59929092
-3278.6259854
-225.732065383
-532.633720692
-432.499408766
-32.1433830107
-139.159466414
90.4948225639
done
c5
-716.78136767
-6475.20962939
-1223.50954719
-332.935962333
-671.593846402
-25.1465911097
-284.271502568
-16.5414252773
done
c6
-1250.92365126
-1592.62002629
-608.36692081
-693.188437793
-158.381123778
-204.866205555
-89.1882857704
-74.793691848
done
c7
-1313.87286511
-7054.61065061
-289.450497615
-1164.05394952
-645.769775869
-151.232873117
-253.310023763
58.3748239597
done
c8
-1036.34364701
-4696.77404307
-289.456320708
-587.59998892
-502.476095515
-78.4135516444
-174.50095984
54.575865051
done
end_character
digit_5
c0
-272.978660537
4366.99432804
1579.80757313
1768.12267738
1273.34510612
1227.44954454
1019.59798038
810.520288693
done
c1
-1019.57407571
2884.39479603
610.73864508
1172.89729859
731.864134415
795.627332175
476.630774842
519.498048436
done
c2
-779.127810529
5198.45309919
1596.78988938
1951.05416265
1161.13145113
1445.04994582
1057.17135487
903.211312719
done
c3
805.956589342
1264.2311386
397.654987284
546.376203533
312.199906441
240.643067928
262.870241401
135.379336132
done
c4
-850.253268028
6932.6924957
2123.33833588
2539.22729863
1205.6361058
1922.80089116
1230.58055457
1197.54560511
done
c5
82.4729842741
3221.21009004
1414.36195862
1309.86258827
1279.87589229
851.042114711
892.295107585
565.02559989
done
c6
-2146.78023031
5518.48615853
1387.48272484
1940.97397827
805.565244161
1647.86136633
894.462922295
1084.46830231
done
c7
-1020.34496749
3852.05655109
878.398851112
1569.34095928
865.191329749
1103.9031577
648.23534067
710.87236261
done
c8
-875.115806589
-16.4019852561
-496.425492172
-8.3826088547
-330.154639423
-3.8192645689
-253.27987462
-1.27946778431
done
end_character
digit_4
c0
-1473.39031438
1056.33048423
-511.37119154
800.668211596
-514.488939476
759.494987691
-484.015344651
546.975774627
done
c1
-53.9412099183
725.440995562
-34.7257317016
318.33255557
-23.6412742238
217.007152956
-17.2685935916
85.5371201853
done
c2
-1351.07255393
515.142930328
-313.148188971
353.966556658
-336.779937369
448.798541312
-354.133747646
272.971389975
done
c3
42.1191279231
1201.40079056
34.2177784568
557.247537577
11.8442599137
391.205451081
7.43404079515
199.647134084
done
c4
-841.165653024
967.307828922
-172.328423605
697.45087723
-333.133067003
684.931441889
-314.488299311
400.124896828
done
c5
-982.935247205
497.325126235
56.660138545
304.079805307
-78.4829162375
423.898373789
-192.854939492
250.280054246
done
c6
-46.667543122
367.611436123
-29.8854540798
142.571443234
-22.2372856649
97.7922502281
-16.9158307739
16.5555480239
done
c7
-138.452069311
1453.42448122
-206.917206062
1059.09974441
-237.688755568
725.325010689
-230.779931719
503.109504507
done
c8
-1896.83430666
349.844040884
-498.677886693
282.402841781
-420.77007656
406.619544649
-449.4825317
242.543218244
done
end_character
digit_9
c0
-1669.03900947
4974.10337578
-505.363929885
1227.84800536
-10.7626656896
1283.39985858
203.436644994
1088.50131998
done
c1
-830.492343645
2975.60127199
-61.5019286281
795.232155357
266.923692151
736.075032497
252.166918151
645.498814768
done
c2
-3719.46741491
8806.47626285
-716.38439662
932.858743196
467.478192392
2012.05794812
449.333381906
1352.84673031
done
c3
-391.548622938
-4.30146487716
55.9167879834
201.217038154
130.172863908
223.338239712
36.0996138824
47.3457676553
done
c4
-1642.6755782
4133.63213834
-297.416663321
2007.01508453
87.5206917986
1529.44973043
187.611507397
1186.66348793
done
c5
-1680.06059795
6180.10529816
-610.69565973
2498.76053528
-9.97732081082
2072.94625409
118.431272719
1522.4159607
done
c6
-1139.55170016
4112.93898959
-280.270172582
1141.08380111
71.6407878332
1057.15458291
196.094443294
888.638972225
done
c7
-1823.74782557
6011.59410523
-571.096613325
1510.13808344
-16.9141110061
1681.52240405
169.058316949
1297.75811548
done
c8
-1458.00658052
8902.84247327
-1308.73660838
1956.86597097
-766.212120927
1908.45592409
-499.532391234
1274.13429507
done
end_character
digit_1
c0
-727.030932758
-43.9443621902
-428.975122717
-15.3905708509
-291.980720129
-8.04367987941
-219.799574366
3.85798244441
done
c1
-616.470567489
3040.38964414
-393.12331194
1379.98212924
-293.032695187
468.43386074
-235.263095869
270.82108518
done
c2
-1026.42374819
4042.85785487
-569.113733648
1797.15705176
-409.511596915
594.910845411
-342.355841432
387.287930362
done
c3
-658.466160479
4675.77558827
-416.620346011
2235.92951956
-305.786513274
859.234998332
-248.143487842
531.641493135
done
c4
-89.549871048
733.173311708
-56.8463668087
313.433517583
-39.44356045
195.340313353
-29.1588363117
30.0380947088
done
c5
-920.82662582
3515.91717832
-557.146122265
1671.47992835
-396.088603563
625.563913378
-318.330923972
350.282807974
done
c6
-582.39902707
2184.58165354
-376.833011751
1017.45827009
-269.854083838
323.679819481
-214.114167137
160.181274629
done
c7
-466.711671676
3721.64794109
-343.348950139
1608.05680296
-258.550908769
526.208984266
-199.195871877
350.402785947
done
c8
-377.260640109
2226.76413951
-835.740963356
2052.03345992
-752.266315434
1587.74056353
-468.045589021
882.600716503
done
end_character
digit_7
c0
-662.17917836
3140.15431455
-622.934930506
1236.90806722
-471.497908903
474.778182606
-319.407986873
362.699464366
done
c1
-454.073512181
-22.0955221753
-264.532165227
-7.8131568584
-181.968578273
-3.77870120419
-138.94811519
1.96456857367
done
c2
-767.817665079
4676.84038377
-765.004238996
1974.94803656
-668.753851358
877.388250427
-435.915386512
607.675268918
done
c3
-44.0397488625
2822.74919781
-320.545685846
1174.5559134
-293.874549309
472.124901712
-182.660504047
333.472591885
done
c4
762.879537475
4490.87977715
-135.675616585
1698.81619076
-151.647162388
774.551079213
22.9262638312
594.404139509
done
c5
-333.899717104
3778.63473861
-519.154790596
1584.55541474
-470.608562048
699.327581078
-318.284781141
495.34623597
done
c6
-314.449330508
2427.34743312
-389.82042661
973.224489903
-319.901598947
363.134586771
-212.709394894
257.484346159
done
c7
-502.280806938
1323.31815747
-434.770660049
484.266045439
-323.992357431
189.81168827
-227.049002553
151.893982513
done
c8
-635.415991583
5948.65757007
-567.337475993
2026.1730732
-425.965770043
1138.42823774
-329.430996043
730.192306383
done
end_character
digit_6
c0
-1518.37138649
1824.66557645
-646.140815125
815.840633727
14.1096767659
1095.31801061
168.258545794
1150.21115587
done
c1
-1038.20261269
-1394.43817098
462.967693229
278.585768247
833.365799167
698.47750975
706.563836951
711.247909412
done
c2
-1113.03018502
411.532127237
-1.5030846261
638.485066883
521.491800117
930.110751163
562.317056723
963.095738539
done
c3
-3272.10718033
-2076.90091149
1827.92369511
1768.81375347
1128.94722643
1130.84591819
912.201819623
911.922563977
done
c4
-602.534193844
-349.370455793
67.9189378676
174.502064363
509.654904871
600.529834488
481.995144588
657.239112145
done
c5
-3154.52483764
-1800.6506238
-124.691914984
-285.971047676
394.618895692
-42.9821336773
514.489459626
230.096745769
done
c6
-1588.18809754
714.200166174
-300.930016336
627.971711618
197.0323216
843.563568653
294.435131433
851.846936433
done
c7
-1921.65980625
-369.054060534
501.24070657
1132.88575656
701.83496166
1129.86968403
635.688204886
989.507617263
done
c8
-1502.29423413
-116.048225872
-183.313723787
353.760938559
305.780811022
675.788238617
392.783639552
753.200808216
done
end_character
digit_3
c0
-365.546118257
2429.13810091
36.7680738117
1172.65020624
-71.1972933162
808.515179783
-206.830255714
601.101653221
done
c1
338.629499308
1703.3505797
322.55713513
962.041098529
180.047261933
690.643274435
-36.870281297
523.046216695
done
c2
-431.686411682
3536.24935562
752.508837308
1543.13296326
125.365799905
1211.08266575
-182.154699968
903.885536961
done
c3
507.816915768
1193.64115701
275.438195165
651.243779781
170.98865237
504.789362807
-13.1917041308
355.996135573
done
c4
265.157637692
2326.53176606
546.742370936
1065.6156311
199.324999519
799.191398903
-81.0095193016
675.335490661
done
c5
-254.587117709
1672.73934969
-57.8475359471
772.28039129
-122.539865353
530.56795083
-238.768672874
407.294735531
done
c6
1212.06570857
293.296984286
312.514596381
308.660590127
91.5964100769
285.62084028
157.430303859
98.282535782
done
c7
171.020617651
4550.19537139
1063.06999542
1843.91633279
65.4310360506
1375.09239878
-279.50634544
889.346682773
done
c8
-623.712556585
2907.28146912
753.010920288
1145.34207861
17.8893605566
891.206097311
-384.773991919
622.319854537
done
end_character
digit_2
c0
-1184.0091031
1240.56317193
-950.465945148
896.090930033
-1148.71087209
869.946357255
-822.284382853
459.155777898
done
c1
-2194.33085869
2825.24353991
-2009.49362715
1994.22046034
-2001.09769555
1416.70123819
-1251.88060652
711.34471565
done
c2
-107.994061959
3861.12909143
-3077.48604116
3437.63224839
-2398.14446105
2298.82883933
-1813.24649225
1378.58363276
done
c3
-2065.77985462
1778.32607071
-1592.71121999
1334.68302333
-1943.64703702
1323.36031869
-1371.09460219
748.287887171
done
c4
-2008.88478923
1109.24109071
-1338.73740018
895.601585292
-1542.09251618
1033.00966353
-1134.533919
562.961962893
done
c5
-2065.59529777
1261.44700622
-3549.397788
2541.55968155
-2805.10531995
1874.44716812
-2135.28079699
1474.91232734
done
c6
-1498.71715662
2063.00072394
-1227.52599987
1444.5928943
-1526.82008739
1338.39920404
-1056.36994468
737.172550712
done
c7
-2799.37611481
1249.8166275
-1768.92610637
1044.42715949
-1848.25353755
1050.81980753
-1346.88733902
549.632031772
done
c8
-591.190230344
2190.15504257
-2159.14662006
1984.62343914
-2284.26980907
1636.27297301
-1862.45114568
1184.5742054
done
end_character
end