@startuml

class MainActivity

class Stroke
class Point
class Character

interface CodebookReaderService
interface DFTService
interface DistanceCalculatorService
interface EvaluatorService
interface PreprocessorService
interface SegmentationService

class CodebookReaderServiceImpl
class DFTServiceImpl
class DistanceCalculatorServiceImpl
class EvaluatorServiceImpl
class PreprocessorServiceImpl
class SegmentationServiceImpl


CodebookReaderService <|-- CodebookReaderImpl
DFTService <|-- DFTServiceImpl
DistanceCalculatorService <|-- DistanceCalculatorServiceImpl
EvaluatorService <|-- EvaluatorServiceImpl
PreprocessorService <|-- PreprocessorServiceImpl
SegmentationService <|-- SegmentationServiceImpl



class MainActivity {
    CodebookReaderService codebook_reader_service;
    SegmentationService segmentation_service;
    PreprocessorService preprocessor_service;
    DFTService dft_service;
    DistanceCalculatorService distance_calculator_service;
    EvaluatorService evaluator_service;
    public static Map<String, List<List<Double>>> centroid_map;
    public static List<Character> characters;
    List<List<List<Double>>> list_of_character_DFTs;
    public static TextView text_output;

}

@enduml